-------------------------------------------------------------------------------
Test set: com.waraporn.week6.BookBankTest
-------------------------------------------------------------------------------
Tests run: 2, Failures: 1, Errors: 0, Skipped: 0, Time elapsed: 0.001 s <<< FAILURE! - in com.waraporn.week6.BookBankTest
shouldWithdrawOverSuccess(com.waraporn.week6.BookBankTest)  Time elapsed: 0 s  <<< FAILURE!
java.lang.AssertionError: expected:<100.0> but was:<-50.0>
	at com.waraporn.week6.BookBankTest.shouldWithdrawOverSuccess(BookBankTest.java:18)

